{
  "networkName": "carNet",
  "entities": [
    {
      "name": "Car",
      "stereotype": "Asset",
      "attributes": [
        {
          "name": "Mileage"
        },
        {
          "name": "Make"
        },
        {
          "name": "Model"
        },
        {
          "name": "Year"
        },
        {
          "name": "Price"
        }
      ]
    },
    {
      "name": "Dealer",
      "stereotype": "Participant",
      "attributes": [
        {
          "name": "Latitude"
        },
        {
          "name": "Longitude"
        },
        {
          "name": "City"
        }
      ]
    }
  ]
}